First things first: background and setup before dplyr
…
That’s hard to read. Let’s clean it up and save it.

Don’t sweat the dplyr code itself just yet (introduced next session), but, as an appetizer, we convert the dataset into an easier-to-work-with format (a tibble) using as_tibble(), rename its one variable from x to level_ft using rename(), and create a new variable called year using mutate(), defined based on the row number (row_number() returns the row number). And we connect all these steps together using the pipe operator (%>%).

lake_huron_transformed = lake_huron_raw %>% #use the object defined above
  dplyr::as_tibble() %>% 
  dplyr::rename(level_ft =x) %>% #rename variable to "level_ft"
  dplyr::mutate(year = row_number()-1+1875) #add a column for year

lake_huron_transformed #look at the transformed data

## # A tibble: 98 × 2
##    level_ft  year
##       <dbl> <dbl>
##  1     580.  1875
##  2     582.  1876
##  3     581.  1877
##  4     581.  1878
##  5     580.  1879
##  6     580.  1880
##  7     580.  1881
##  8     581.  1882
##  9     581.  1883
## 10     581.  1884
## # … with 88 more rows
## # ℹ Use `print(n = ...)` to see more rows
…
