R for data wrangling 1: learning the ground rules of dplyr with publicly available COVID-19 data
…
As noted above, read_csv() is part of the readr package and returns a “tibble”. One benefit of using tibbles, as noted here, is that they can be printed without overwhelming the console. (This is not necessarily true of data frames more generally).

Let’s first confirm that nyt_state_data is a tibble using the base-R class() function, which returns the object’s class. The tibble object class is indicated by tbl_df. And then we can print the tibble by typing its name to get a sense of its dimensions (rows and columns) and what the variables look like.

At this writing, there are 48,838 observations and 5 columns. The variable type is denoted below the variable names.

We can also use the class() function from base R to return the type for a single column. The $ is a base-R function that extracts an element of an object by name.

class(nyt_state_data) #what type of object is it?

## [1] "spec_tbl_df" "tbl_df"      "tbl"         "data.frame"

nyt_state_data #print the tibble

## # A tibble: 48,838 × 5
##    date       state      fips  cases deaths
##    <date>     <chr>      <chr> <dbl>  <dbl>
##  1 2020-01-21 Washington 53        1      0
##  2 2020-01-22 Washington 53        1      0
##  3 2020-01-23 Washington 53        1      0
##  4 2020-01-24 Illinois   17        1      0
##  5 2020-01-24 Washington 53        1      0
##  6 2020-01-25 California 06        1      0
##  7 2020-01-25 Illinois   17        1      0
##  8 2020-01-25 Washington 53        1      0
##  9 2020-01-26 Arizona    04        1      0
## 10 2020-01-26 California 06        2      0
## # … with 48,828 more rows
## # ℹ Use `print(n = ...)` to see more rows
…
class(nyt_state_data$cases)

## [1] "numeric"

Now let’s try the same thing but written with the pipe (%>%) operator. As mentioned above, the pipe brings the object out of the parentheses to focus on the action-oriented part of the function, making it easier to read.

nyt_state_data_2_pipe = nyt_state_data %>% 
  mutate(cases_plus_1 = cases+1)

Check our work by printing each one. They should be the same. Note the new column, cases_plus_1, in the objects nyt_state_data_2 and nyt_state_data_2_pipe.

nyt_state_data_2

## # A tibble: 48,838 × 6
##    date       state      fips  cases deaths cases_plus_1
##    <date>     <chr>      <chr> <dbl>  <dbl>        <dbl>
##  1 2020-01-21 Washington 53        1      0            2
##  2 2020-01-22 Washington 53        1      0            2
##  3 2020-01-23 Washington 53        1      0            2
##  4 2020-01-24 Illinois   17        1      0            2
##  5 2020-01-24 Washington 53        1      0            2
##  6 2020-01-25 California 06        1      0            2
##  7 2020-01-25 Illinois   17        1      0            2
##  8 2020-01-25 Washington 53        1      0            2
##  9 2020-01-26 Arizona    04        1      0            2
## 10 2020-01-26 California 06        2      0            3
## # … with 48,828 more rows
## # ℹ Use `print(n = ...)` to see more rows

nyt_state_data_2_pipe

## # A tibble: 48,838 × 6
##    date       state      fips  cases deaths cases_plus_1
##    <date>     <chr>      <chr> <dbl>  <dbl>        <dbl>
##  1 2020-01-21 Washington 53        1      0            2
##  2 2020-01-22 Washington 53        1      0            2
##  3 2020-01-23 Washington 53        1      0            2
##  4 2020-01-24 Illinois   17        1      0            2
##  5 2020-01-24 Washington 53        1      0            2
##  6 2020-01-25 California 06        1      0            2
##  7 2020-01-25 Illinois   17        1      0            2
##  8 2020-01-25 Washington 53        1      0            2
##  9 2020-01-26 Arizona    04        1      0            2
## 10 2020-01-26 California 06        2      0            3
## # … with 48,828 more rows
## # ℹ Use `print(n = ...)` to see more rows

Note, also that two new variables can be created in the same mutate() call. Each new variable is separated by a comma. For those familiar with SAS, this begins to look like a SAS data step.

nyt_state_data_2vars  = nyt_state_data %>% 
  mutate(
    cases_plus_1 = cases+1,
    cases_plus_2 = cases+2
    )
nyt_state_data_2vars

## # A tibble: 48,838 × 7
##    date       state      fips  cases deaths cases_plus_1 cases_plus_2
##    <date>     <chr>      <chr> <dbl>  <dbl>        <dbl>        <dbl>
##  1 2020-01-21 Washington 53        1      0            2            3
##  2 2020-01-22 Washington 53        1      0            2            3
##  3 2020-01-23 Washington 53        1      0            2            3
##  4 2020-01-24 Illinois   17        1      0            2            3
##  5 2020-01-24 Washington 53        1      0            2            3
##  6 2020-01-25 California 06        1      0            2            3
##  7 2020-01-25 Illinois   17        1      0            2            3
##  8 2020-01-25 Washington 53        1      0            2            3
##  9 2020-01-26 Arizona    04        1      0            2            3
## 10 2020-01-26 California 06        2      0            3            4
## # … with 48,828 more rows
## # ℹ Use `print(n = ...)` to see more rows
…
    deaths_cumul_day_before = lag(deaths_cumul),
    deaths_incident = deaths_cumul - deaths_cumul_day_before
  ) %>% 
  ungroup() %>% 
  #For visual convenience, now sort the data by state by date
  arrange(state, date)

nyt_state_wrangle

## # A tibble: 48,838 × 9
##    date       state   fips  cases_cumul deaths…¹ cases…² cases…³ death…⁴ death…⁵
##    <date>     <chr>   <chr>       <dbl>    <dbl>   <dbl>   <dbl>   <dbl>   <dbl>
##  1 2020-03-13 Alabama 01              6        0      NA      NA      NA      NA
##  2 2020-03-14 Alabama 01             12        0       6       6       0       0
##  3 2020-03-15 Alabama 01             23        0      12      11       0       0
##  4 2020-03-16 Alabama 01             29        0      23       6       0       0
##  5 2020-03-17 Alabama 01             39        0      29      10       0       0
##  6 2020-03-18 Alabama 01             51        0      39      12       0       0
##  7 2020-03-19 Alabama 01             78        0      51      27       0       0
##  8 2020-03-20 Alabama 01            106        0      78      28       0       0
##  9 2020-03-21 Alabama 01            131        0     106      25       0       0
## 10 2020-03-22 Alabama 01            157        0     131      26       0       0
## # … with 48,828 more rows, and abbreviated variable names ¹​deaths_cumul,
## #   ²​cases_cumul_day_before, ³​cases_incident, ⁴​deaths_cumul_day_before,
## #   ⁵​deaths_incident
## # ℹ Use `print(n = ...)` to see more rows

4.6.1 group_by (continued)

group_by() is often but not always used in combination with summarise(). We can use group_by() without summarise() to extract the total number of cases and deaths for each state, as the last day of data for each state contains the cumulative total.In the next code chunk, we’ll calculate the same cumulative total using the incident totals calculated above.

To incorporate our changes to the data modified above, first set the new dataset (nyt_last_day_by_state) equal to nyt_state_wrangle.

nyt_last_day_by_state = nyt_state_wrangle %>% 
  arrange(desc(date)) %>% #Use desc() to sort it by date descending, meaning the most recent day will be on the top of the dataset.
  group_by(state) %>% 
  slice(1) #The number 1 grabs the top row

nyt_last_day_by_state

## # A tibble: 56 × 9
## # Groups:   state [56]
##    date       state        fips  cases…¹ death…² cases…³ cases…⁴ death…⁵ death…⁶
##    <date>     <chr>        <chr>   <dbl>   <dbl>   <dbl>   <dbl>   <dbl>   <dbl>
##  1 2022-08-01 Alabama      01     1.42e6   19891  1.42e6       0   19891       0
##  2 2022-08-01 Alaska       02     2.87e5    1270  2.87e5       0    1270       0
##  3 2022-08-01 American Sa… 60     7.47e3      33  7.47e3       0      33       0
##  4 2022-08-01 Arizona      04     2.20e6   30768  2.20e6       0   30768       0
##  5 2022-08-01 Arkansas     05     9.05e5   11719  9.04e5     582   11719       0
##  6 2022-08-01 California   06     1.07e7   93651  1.07e7   13280   93613      38
##  7 2022-08-01 Colorado     08     1.61e6   13198  1.60e6    2233   13194       4
##  8 2022-08-01 Connecticut  09     8.55e5   11102  8.55e5     352   11102       0
##  9 2022-08-01 Delaware     10     2.95e5    3024  2.94e5     867    3024       0
## 10 2022-08-01 District of… 11     1.63e5    1364  1.63e5     173    1364       0
## # … with 46 more rows, and abbreviated variable names ¹​cases_cumul,
## #   ²​deaths_cumul, ³​cases_cumul_day_before, ⁴​cases_incident,
## #   ⁵​deaths_cumul_day_before, ⁶​deaths_incident
## # ℹ Use `print(n = ...)` to see more rows
…
nyt_cases_summary = nyt_state_wrangle %>% 
  group_by(state) %>% 
  summarise(
    cases_incident_average = mean(cases_incident, na.rm=TRUE),
    cases_cumul_way1 = sum(cases_incident, na.rm=TRUE),
    cases_cumul_way2 = max(cases_cumul, na.rm=TRUE)
    )

dim(nyt_cases_summary)

## [1] 56  4

nyt_cases_summary

## # A tibble: 56 × 4
##    state                cases_incident_average cases_cumul_way1 cases_cumul_way2
##    <chr>                                 <dbl>            <dbl>            <dbl>
##  1 Alabama                              1635.           1424405          1424411
##  2 Alaska                                329.            286792           286793
##  3 American Samoa                         23.9             7470             7471
##  4 Arizona                              2393.           2196428          2196429
##  5 Arkansas                             1036.            904512           904513
##  6 California                          11658.          10713332         10713333
##  7 Colorado                             1827.           1605856          1605858
##  8 Connecticut                           976.            854933           854934
##  9 Delaware                              338.            294907           294908
## 10 District of Columbia                  186.            162691           162692
## # … with 46 more rows
## # ℹ Use `print(n = ...)` to see more rows
…
