Monte Carlo simulations and boots with the purrr::map_dfr()
…
monte_carlo_sim_frozen

## # A tibble: 100 × 6
##    county_id state   pop   dem  prev n_cases
##        <int> <dbl> <int> <int> <dbl>   <int>
##  1         1     1  9940     1 0.492    4891
##  2         2     1  9780     1 0.455    4448
##  3         3     1  9863     1 0.492    4849
##  4         4     1  9884     0 0.238    2352
##  5         5     1 10132     0 0.243    2464
##  6         6     1 10062     1 0.435    4378
##  7         7     1  9995     0 0.177    1773
##  8         8     1  9995     1 0.634    6340
##  9         9     1  9965     0 0.223    2219
## 10        10     1  9995     0 0.211    2111
## # … with 90 more rows
## # ℹ Use `print(n = ...)` to see more rows
…
To see how the function works, run one iteration of it:

monte_carlo_sim_once = monte_carlo_sim_fun(rep_id_val = 5)
monte_carlo_sim_once

## # A tibble: 100 × 7
##    county_id state   pop   dem  prev n_cases rep_id
##        <int> <dbl> <int> <int> <dbl>   <int>  <dbl>
##  1         1     1  9858     1 0.177    1747      5
##  2         2     1  9890     0 0.424    4191      5
##  3         3     1  9960     0 0.137    1362      5
##  4         4     1  9885     0 0.425    4196      5
##  5         5     1 10003     1 0.517    5175      5
##  6         6     1 10000     1 0.350    3496      5
##  7         7     1 10134     0 0.248    2511      5
##  8         8     1  9834     0 0.189    1862      5
##  9         9     1 10050     1 0.157    1579      5
## 10        10     1 10221     1 0.133    1361      5
## # … with 90 more rows
## # ℹ Use `print(n = ...)` to see more rows
…
Simulate 500 versions of this state. In each replication, the values for the variables pop, dem, prev, and n_cases randomly vary according to their specified distribution. We use map_dfr() from the purrr package to run the simulation and then stack the results on top of one another, akin to mutate::bind_rows().

Take note the unusual structure of this code. The function we created above, monte_carlo_sim_fun(), is inside map_dfr(), and the list of replication ids, rep_id_val_list, begins the pipe sequence.

library(purrr) #make sure it's attached
set.seed(NULL) #allow it to vary differently each time.
monte_carlo_sim_lots  = rep_id_val_list %>% 
  map_dfr(monte_carlo_sim_fun) 

Take a look at output.

monte_carlo_sim_lots

## # A tibble: 50,000 × 7
##    county_id state   pop   dem  prev n_cases rep_id
##        <int> <dbl> <int> <int> <dbl>   <int>  <int>
##  1         1     1  9882     0 0.332    3280      1
##  2         2     1  9933     0 0.179    1782      1
##  3         3     1 10195     1 0.198    2021      1
##  4         4     1 10030     1 0.475    4764      1
##  5         5     1 10106     1 0.481    4865      1
##  6         6     1 10145     1 0.263    2666      1
##  7         7     1  9824     1 0.518    5086      1
##  8         8     1  9971     0 0.252    2509      1
##  9         9     1  9968     0 0.141    1408      1
## 10        10     1  9985     1 0.181    1802      1
## # … with 49,990 more rows
## # ℹ Use `print(n = ...)` to see more rows
…
4.2 Bootstrap

Now let’s bootstrap monte_carlo_sim_frozen, again supposing that even though it was generated randomly, it is now viewed as a single frozen sample - the one we drew and have access to. We can estimate the sampling distribution by re-sampling it with replacement with sampling probability of 1, meaning all rows will be re-sampled. This means that, in a given sample, some counties will repeat, and some will not appear at all.

Here’s one example:

monte_carlo_sim_one_boot = monte_carlo_sim_frozen %>% 
  slice_sample(prop=1,replace=TRUE)

Take a look:

monte_carlo_sim_one_boot

## # A tibble: 100 × 6
##    county_id state   pop   dem   prev n_cases
##        <int> <dbl> <int> <int>  <dbl>   <int>
##  1        70     1  9897     1 0.345     3413
##  2        43     1  9984     0 0.234     2336
##  3        61     1  9910     1 0.520     5148
##  4         9     1  9965     0 0.223     2219
##  5        34     1  9924     1 0.440     4363
##  6        20     1  9981     1 0.564     5626
##  7         1     1  9940     1 0.492     4891
##  8        17     1  9955     0 0.257     2553
##  9        58     1 10015     0 0.0619     619
## 10        10     1  9995     0 0.211     2111
## # … with 90 more rows
## # ℹ Use `print(n = ...)` to see more rows
…
4.2.2 Run the replications

Simulate 500 versions of this re-sampling. We again use map_dfr() from the purrr package to run the function and then stack the results on top of one another. Note the unusual structure of this code. The function we created above, monte_carlo_sim_fun(), is inside map_dfr(), and the list of replication ids, rep_id_val_list, begins the pipe sequence.

boot_lots  = rep_id_val_list %>% 
  map_dfr(boot_fun) 

4.2.3 Summarize results

boot_lots

## # A tibble: 50,000 × 7
##    county_id state   pop   dem  prev n_cases rep_id
##        <int> <dbl> <int> <int> <dbl>   <int>  <int>
##  1        48     1  9804     0 0.157    1539      1
##  2        40     1  9936     0 0.172    1707      1
##  3        68     1 10085     0 0.396    3996      1
##  4        91     1  9947     1 0.377    3752      1
##  5        97     1 10028     1 0.456    4568      1
##  6        53     1 10075     1 0.273    2750      1
##  7        64     1  9909     0 0.343    3403      1
##  8        97     1 10028     1 0.456    4568      1
##  9         3     1  9863     1 0.492    4849      1
## 10       100     1 10128     1 0.222    2252      1
## # … with 49,990 more rows
## # ℹ Use `print(n = ...)` to see more rows
…
