Monte Carlo Simulations and Bootstrapping and using purrr::map_dfr()
…
monte_carlo_sim_frozen

## # A tibble: 100 × 6
##    county_id state   pop   dem  prev n_cases
##        <int> <dbl> <int> <int> <dbl>   <int>
##  1         1     1  9940     1 0.457    4541
##  2         2     1  9780     1 0.442    4321
##  3         3     1  9863     1 0.457    4504
##  4         4     1  9884     0 0.294    2905
##  5         5     1 10132     0 0.297    3005
##  6         6     1 10062     1 0.434    4367
##  7         7     1  9995     0 0.264    2635
##  8         8     1  9995     1 0.514    5134
##  9         9     1  9965     0 0.286    2853
## 10        10     1  9995     0 0.281    2804
## # … with 90 more rows
## # ℹ Use `print(n = ...)` to see more rows
…
4.1.2 Run the replications

Simulate 500 versions of this state, each time generating new counties randomly varying according to the distribution above. We use map_dfr() from the purrr package to run th code and then stack the results on top of one another. Note the unusual structure of this code. The function we created above, monte_carlo_sim_fun(), is inside map_dfr(), and the list of replication ids, rep_id_val_list, begins the pipe sequence.

library(purrr) #make sure it's attached
set.seed(NULL) #allow it to vary differently each time.
monte_carlo_sim_lots  = rep_id_val_list %>% 
  map_dfr(monte_carlo_sim_fun) 

Take a look at output.

monte_carlo_sim_lots

## # A tibble: 50,000 × 7
##    county_id state   pop   dem  prev n_cases rep_id
##        <int> <dbl> <int> <int> <dbl>   <int>  <int>
##  1         1     1 10091     0 0.262    2646      1
##  2         2     1 10125     1 0.562    5691      1
##  3         3     1 10131     0 0.306    3104      1
##  4         4     1  9975     0 0.205    2049      1
##  5         5     1  9982     0 0.277    2762      1
##  6         6     1  9951     1 0.456    4542      1
##  7         7     1  9903     0 0.336    3327      1
##  8         8     1  9975     0 0.245    2444      1
##  9         9     1  9949     0 0.288    2863      1
## 10        10     1 10013     1 0.451    4514      1
## # … with 49,990 more rows
## # ℹ Use `print(n = ...)` to see more rows
…
4.2 Bootstrap

Now let’s bootstrap monte_carlo_sim_frozen, again supposing that even though it was generated randomly, it is now frozen in sample and can be viewed as a single sample. We will then re-sample it with replacement with sampling probability of 1, meaning all rows will be re-sampled. This means that, in a given sample, some counties will repeat, and some will not appear at all.

Here’s one example:

monte_carlo_sim_one_boot = monte_carlo_sim_frozen %>% 
  slice_sample(prop=1,replace=TRUE)

Take a look:

monte_carlo_sim_one_boot

## # A tibble: 100 × 6
##    county_id state   pop   dem  prev n_cases
##        <int> <dbl> <int> <int> <dbl>   <int>
##  1        90     1  9986     1 0.315    3145
##  2        39     1  9977     1 0.376    3748
##  3        71     1  9944     1 0.424    4215
##  4        92     1 10015     1 0.385    3852
##  5        63     1  9934     0 0.340    3375
##  6        79     1 10059     0 0.273    2747
##  7        72     1 10051     0 0.216    2172
##  8        53     1 10075     1 0.369    3722
##  9        87     1 10139     1 0.340    3449
## 10       100     1 10128     1 0.349    3539
## # … with 90 more rows
## # ℹ Use `print(n = ...)` to see more rows
…
4.2.2 Run the replications

Simulate 500 versions of this state, each time generating new counties randomly varying according to the distribution above. We use map_dfr() from the purrr package to run the function and then stack the results on top of one another. Note the unusual structure of this code. The function we created above, monte_carlo_sim_fun(), is inside map_dfr(), and the list of replication ids, rep_id_val_list, begins the pipe sequence.

boot_lots  = rep_id_val_list %>% 
  map_dfr(boot_fun) 

4.2.3 Summarize results

boot_lots

## # A tibble: 50,000 × 7
##    county_id state   pop   dem  prev n_cases rep_id
##        <int> <dbl> <int> <int> <dbl>   <int>  <int>
##  1        60     1 10036     0 0.294    2947      1
##  2        42     1 10054     1 0.350    3516      1
##  3        81     1 10048     0 0.278    2795      1
##  4        70     1  9897     1 0.398    3936      1
##  5        99     1  9864     0 0.291    2868      1
##  6        97     1 10028     1 0.442    4434      1
##  7        69     1  9963     0 0.234    2334      1
##  8        83     1 10022     1 0.392    3931      1
##  9         5     1 10132     0 0.297    3005      1
## 10        25     1  9909     1 0.482    4773      1
## # … with 49,990 more rows
## # ℹ Use `print(n = ...)` to see more rows
…
